Tw6f10!U3iS3xuqJ%e*c
QQbiUgs$5V6iZjee2qy1
Xl$lMb2Q*8xecB!#MKso
3%mBF2Ph6sqrRD%*&BDl
qf2dyw&7geAh72&H1Nh9
&nIA4%2Lh34%ZAWjw&GO
$z!OJj&de!p$XXCjsTXA
ORV2*jZ&73i5RGOs5oH4
f5&c2P8%M2S1LO9tU!fp
*6x5$8Tdwc8&O7P6MS4!
7kyAv1%&9EerW*l%ZFyr
